folder yahooEC_v2 does not exists!
Folder ID: 1r9Xv0_Yh0L-zokO80Fv5qCzqPban6W9k
folder buy does not exists!
Folder ID: 1RjMDp58Y9BnqvT2QNGqa9dl66brIV74f
folder full does not exists!
Folder ID: 1D-gYl2E6cG1-9CbEMAox-bJWATrTXMC7
folder 2018051703 does not exists!
Folder ID: 1IfrWXOdS2BywXkI6fdiXX7MDdbljbf34
file buy_000042.json.gzip.md5 does not exists!
Traceback (most recent call last):
  File "upload_v2.py", line 198, in <module>
    executefileupload(filepath=join(localpath, f,ff,fff,ffff),targetdirid=lv4dirid)
  File "upload_v2.py", line 162, in executefileupload
    folderid=targetdirid)
  File "upload_v2.py", line 74, in uploadfile
    if os.stat(filepath).st_size <= 1024 * 1024 * 5:
NameError: name 'os' is not defined
Traceback (most recent call last):
  File "upload_v2.py", line 11, in <module>
    import os.stat
ModuleNotFoundError: No module named 'os.stat'; 'os' is not a package
dir exists, no need to create another one
dir exists, no need to create another one
dir exists, no need to create another one
dir exists, no need to create another one
file buy_000042.json.gzip.md5 does not exists!
file size smaller than 5MB
File ID: 1M66guvAh9DnuO7VeLd2EQUuH1A0Y5S0Q
file buy_000036.json.gzip does not exists!
file size larger than 5MB
File ID: 1e7Ig-eyqsxwVz0JPsh63fNc2fh59recL
file buy_000014.json.gzip.md5 does not exists!
file size smaller than 5MB
File ID: 1pAQd2omAoD1jUvb5O9QG8giJK_NK9sBp
file buy_000052.json.gzip.md5 does not exists!
file size smaller than 5MB
File ID: 1hM-5pVpY6uvLw2UF_xRoWjYynQTQhuTl
file buy_000003.json.gzip.md5 does not exists!
file size smaller than 5MB
File ID: 1kNo6V0jzfhPkxV9KWHFK3KWvijOO7u5r
file buy_000030.json.gzip.md5 does not exists!
file size smaller than 5MB
File ID: 1adDaq7ZKw_CcBCcFyeCw1GaUfVr2996G
file buy_000049.json.gzip.md5 does not exists!
file size smaller than 5MB
File ID: 1-guMi_sby3Oyh9GN4eeBFQv5dwMvwObu
file buy_000025.json.gzip.md5 does not exists!
file size smaller than 5MB
File ID: 1m8hqmqXeSYOuA-aKnmPCN-VpilIgEr_a
file buy_000018.json.gzip does not exists!
file size larger than 5MB
File ID: 1LMNBDcFd5eJ3Ef5yxhtW9Y-pXkQZiUUi
file buy_000024.json.gzip does not exists!
file size larger than 5MB
File ID: 1J1lMLGilbBon--Rwl-dusxlrtKR1mTgM
file buy_000053.json.gzip.md5 does not exists!
file size smaller than 5MB
File ID: 17fALaRWheqm2x7ZOv9mlGymFvjy32r-w
file buy_000048.json.gzip.md5 does not exists!
file size smaller than 5MB
File ID: 1mddRW7u_vN9_xRAHsduo5uk_aoYtCvLX
file buy_000042.json.gzip does not exists!
file size larger than 5MB
File ID: 1Pc9sJLsxfe_7DW2wBxB5ADIFvvWaGt5e
file buy_000037.json.gzip.md5 does not exists!
file size smaller than 5MB
File ID: 1EeXD0DMiK7pY4vgqE6jqoHKSdhELhvqn
file buy_000010.json.gzip.md5 does not exists!
file size smaller than 5MB
File ID: 1RAZwmHOSUISKsv54ygAB_vI8sPbGnmc9
file buy_000026.json.gzip does not exists!
file size larger than 5MB
File ID: 1X8qykb-9Zzc6yFMSmf3cR6sPTJS9yQ8U
file buy_000043.json.gzip.md5 does not exists!
file size smaller than 5MB
File ID: 1j5n_6oAH3dqczXyb91mcl_85cRU7G3fG
file buy_000029.json.gzip.md5 does not exists!
file size smaller than 5MB
File ID: 1xvgoUEiPfKvaqh5FBJp4Xp-THeR-ZS_C
file buy_000001.json.gzip.md5 does not exists!
file size smaller than 5MB
File ID: 1kq4lpYk4yoyNofWj_r8qslOrdGD3_lKm
file buy_000062.json.gzip does not exists!
file size larger than 5MB
File ID: 1Qu22jwi0_Smg4U9mZA7HMxN1e6SJmHiH
file buy_000005.json.gzip does not exists!
file size larger than 5MB
File ID: 1y0t2V70k5N1g5tqkLcf-Hz-9f-nRONuK
file buy_000035.json.gzip does not exists!
file size larger than 5MB
File ID: 1d2_YF0kxw8AofSjHICpA2vVoyLbj5v6y
file buy_000026.json.gzip.md5 does not exists!
file size smaller than 5MB
File ID: 1vv_RZo_ii4io3iwIcLmHMghCbOIScp5h
file buy_000061.json.gzip does not exists!
file size larger than 5MB
File ID: 1yV8BmWWRuLs0jz-Lt8G4cieQ6Wc7iAt2
file buy_000056.json.gzip.md5 does not exists!
file size smaller than 5MB
File ID: 1eFTF_OnBqHboZkvFxwup87h7zWqQERB8
file category.json.gzip does not exists!
file size smaller than 5MB
File ID: 1iSg2cm_vyntAA3DpswEi3W12RN3hDjie
file buy_000008.json.gzip.md5 does not exists!
file size smaller than 5MB
File ID: 1Z2NByZuOoLRmJ19kRJzZGtq4MNuNEm4R
file buy_000060.json.gzip does not exists!
file size larger than 5MB
File ID: 11nlJ4IKHcQiPJUlFUk6zXByYdKNlVrSt
file buy_000046.json.gzip does not exists!
file size larger than 5MB
File ID: 1k1st84vXgW_zJPBlsROVmOU3FeEMRrQp
file buy_000004.json.gzip.md5 does not exists!
file size smaller than 5MB
File ID: 1U8C8WMSelZoegLSH1gi8KGZJaXUt6-sO
file buy_000040.json.gzip does not exists!
file size larger than 5MB
File ID: 1kb6frli4dcr_ocGhNkk8vCkgMT6VXXo9
file buy_000057.json.gzip does not exists!
file size larger than 5MB
File ID: 1RLjmbh_BMdRDWRMn4s2HOUH8tL-op13h
file buy_000003.json.gzip does not exists!
file size larger than 5MB
File ID: 1VurAql7n_JBGK6qzY3_IcJcFn0js1_Cq
file buy_000031.json.gzip.md5 does not exists!
file size smaller than 5MB
File ID: 1Nrb6IzkC4daY9BFWd3kUAftKB40-nahG
file buy_000014.json.gzip does not exists!
file size larger than 5MB
File ID: 1flILOSmzsIC53ajiOpfS1DOSf4mSB_fH
file buy_000013.json.gzip.md5 does not exists!
file size smaller than 5MB
File ID: 1WEtATrcyXMQ-7YU13bm8Ea2GqMjry_TJ
file buy_000040.json.gzip.md5 does not exists!
file size smaller than 5MB
File ID: 1FDnyB1y0awLwPcC5DiEoJyjXrzR8Brir
file buy_000021.json.gzip.md5 does not exists!
file size smaller than 5MB
File ID: 16J4ujXKNe5HuLUSlkT8A2sK9VoqEqTkV
file buy_000020.json.gzip.md5 does not exists!
file size smaller than 5MB
File ID: 1e21ONVbabyi0ZIN9AQdQkaWvOIGV0yCB
file buy_000027.json.gzip.md5 does not exists!
file size smaller than 5MB
File ID: 1NsjSWDKpsFumtjtOdqdQ5ZmcN35HCN-H
file buy-full-2018051703.MANIFEST does not exists!
file size smaller than 5MB
File ID: 1omquvt1_ZAHhj-etiy9QbSZT2dEG83qs
file buy_000057.json.gzip.md5 does not exists!
file size smaller than 5MB
File ID: 1_Xki1xdmvc3YHsFdflU7DwL9Gywr9jhF
file buy_000039.json.gzip does not exists!
file size larger than 5MB
File ID: 1fR0cV3NVwomgUQMjBzDZ5RNna6_6qFRM
file buy_000051.json.gzip does not exists!
file size larger than 5MB
File ID: 1iM_KHHTGgUP8F821TFwRH_NyfmETcOrk
file buy_000045.json.gzip.md5 does not exists!
file size smaller than 5MB
File ID: 10GGM5ioyI7HgotmetBoFCsLNr2652uUT
file buy_000048.json.gzip does not exists!
file size larger than 5MB
File ID: 1tLo3e00Q6sJ0xw11epcyUiEKP-mPlW39
file buy_000037.json.gzip does not exists!
file size larger than 5MB
File ID: 1S-15EwhzxOYNFX_XH1IpBuXrpWFrHRSp
file buy_000016.json.gzip does not exists!
file size larger than 5MB
File ID: 1AjhNPzm07Mpov3TQjjw2c_CofyHFuXbK
file buy_000054.json.gzip does not exists!
file size larger than 5MB
File ID: 1pG2ndakB42Z41IMvnpVEBbut-HO74WS_
file buy_000028.json.gzip does not exists!
file size larger than 5MB
File ID: 1R2uJWS4HZ6e7jGnzZtQFrj8vTzRRhYL6
file buy_000036.json.gzip.md5 does not exists!
file size smaller than 5MB
File ID: 1L-gsR5p98xYO6O-ZUypGonLthwnZsbl5
file buy_000009.json.gzip does not exists!
file size larger than 5MB
File ID: 13JFGFk5T_5FoDfh73wYGKHWXv2nZ8Dgm
file buy_000012.json.gzip.md5 does not exists!
file size smaller than 5MB
File ID: 1HWfYLcYXIIw4wKou91en_vfGuhMUbDAW
file buy_000031.json.gzip does not exists!
file size larger than 5MB
File ID: 1wypMMqltxvAGoKUsYi3OeWwmbOr1-_D8
file buy_000059.json.gzip.md5 does not exists!
file size smaller than 5MB
File ID: 1gJ4Vv_FIyvWQMR8lZuOqqNuDFKmGmFd0
file buy_000030.json.gzip does not exists!
file size larger than 5MB
File ID: 1nZ5ypWnc93-o_Uwg7mWOwaI8AjeBYFmL
file buy_000027.json.gzip does not exists!
file size larger than 5MB
File ID: 1ELKwmfcJlqthtQAZD0Utg6XfgNma0qEZ
file buy_000013.json.gzip does not exists!
file size larger than 5MB
File ID: 1rDLJrQmRhpjzTrdsEsuczqJTOICnelqO
file buy_000010.json.gzip does not exists!
file size larger than 5MB
File ID: 128b34VMJQKCDqzdUup17MdhCA9Qf_vgN
file buy_000034.json.gzip.md5 does not exists!
file size smaller than 5MB
File ID: 1klTivazRTCqMPa67n4UnNIkIYF-IdQwP
file buy_000047.json.gzip.md5 does not exists!
file size smaller than 5MB
File ID: 1D1OqAO69aYQ6DW_SEeRB0KP68McZIXT0
file buy_000015.json.gzip does not exists!
file size larger than 5MB
File ID: 1a4v-0ChCqoQHy9U_zOBV8qPa8t3woUDh
file buy_000021.json.gzip does not exists!
file size larger than 5MB
File ID: 1auO2ZPQO81Ae4nQZqfEMRDi4CUouLH_t
file category.json.gzip.md5 does not exists!
file size smaller than 5MB
File ID: 11Bh2QwoYN5Bjy7ERNdI55DWvFjVTgYOQ
file buy_000015.json.gzip.md5 does not exists!
file size smaller than 5MB
File ID: 1EyO3K0Uz0QghSG4USagWbvKowAf1DrUj
file buy_000053.json.gzip does not exists!
file size larger than 5MB
File ID: 1kHkJz3t5-VVsiFKEEIb2l5kdd9hTUhmX
file buy_000023.json.gzip does not exists!
file size larger than 5MB
File ID: 1twvoJQsBRrcwvUV8ZfiDxq5baTjrXVPs
file buy_000051.json.gzip.md5 does not exists!
file size smaller than 5MB
File ID: 18gbJrmoQ8WGb0D6P-RtYK3be4832FScP
file buy_000006.json.gzip.md5 does not exists!
file size smaller than 5MB
File ID: 1kVp0sEJQtAcq0eSiNm-M0q-6hqG-JORo
file buy_000064.json.gzip.md5 does not exists!
file size smaller than 5MB
File ID: 1Atss2riNCsZCWA4WfZJDdlWR2l-Uu4qo
file buy_000060.json.gzip.md5 does not exists!
file size smaller than 5MB
File ID: 1e7Q1vNutiMUeZ_Qp5DOoXfYQ-QxAZX3E
file buy_000038.json.gzip does not exists!
file size larger than 5MB
File ID: 1rv4LX6S4MPDxcdJjbn_aKvmzu7hpyxZP
file buy_000034.json.gzip does not exists!
file size larger than 5MB
File ID: 1X2dEaSQcM8FcMrLqxXHqkVbtyyXEUGzZ
file buy_000038.json.gzip.md5 does not exists!
file size smaller than 5MB
File ID: 1LhhJH6Qijlp1O67bHTn7agH8GSO2HwRp
file buy_000009.json.gzip.md5 does not exists!
file size smaller than 5MB
File ID: 14YXPr9xXeYv7wBNH0NZTLUL58o4KwN_s
file buy_000063.json.gzip does not exists!
file size larger than 5MB
File ID: 1f-L3ZLWOf_xj7VBDlCAH80EenebCAvfG
file buy_000047.json.gzip does not exists!
file size larger than 5MB
File ID: 1UEYGS-h1Xje2JrmBnQCIuXN5LBSyp2_8
file buy_000019.json.gzip does not exists!
file size larger than 5MB
File ID: 1bCKTjztaXzSoYDFTPIK2PT1B7KZZxoLy
file buy_000049.json.gzip does not exists!
file size larger than 5MB
File ID: 1yv6GiWedEbYA1P7egqwm1CWfaB829Xbf
file buy_000055.json.gzip.md5 does not exists!
file size smaller than 5MB
File ID: 1oXgIZQ0cdHTRcsvwv4lYNyt4GPNUTD1Y
file buy_000002.json.gzip.md5 does not exists!
file size smaller than 5MB
File ID: 1UD0Mifz1mGztv4_0tciezquGDjPDbcKY
file buy_000032.json.gzip.md5 does not exists!
file size smaller than 5MB
File ID: 1rJHdBfkNakEcGi-XpAcyK3EB4EB8fHgy
file buy_000020.json.gzip does not exists!
file size larger than 5MB
File ID: 15ZJtg0YmfcMDGpLV1TWBQLUQImo3hiNo
file buy_000025.json.gzip does not exists!
file size larger than 5MB
File ID: 1EpT5ISgBxQZaeDP2mgOY36WEOzxw21Ws
file buy_000017.json.gzip does not exists!
file size larger than 5MB
File ID: 1_TEhwjCoit8lhSeyUAq0PEkP7K1Ir4E5
file buy_000046.json.gzip.md5 does not exists!
file size smaller than 5MB
File ID: 1h3l0o1KEdl9dgqlDXHZfohrxzxD8PBGy
file buy_000029.json.gzip does not exists!
file size larger than 5MB
File ID: 1hp3uK5g4907BTILvgtNK8W2AcRZeeCUu
file buy_000052.json.gzip does not exists!
file size larger than 5MB
File ID: 1J-AoImKx6Bs9NTg9YSDhvS8VtAEdJOOM
file buy_000008.json.gzip does not exists!
file size larger than 5MB
File ID: 1r82LG0TShF8uQjB3PYtcZmdpfz7AFEKI
file buy_000005.json.gzip.md5 does not exists!
file size smaller than 5MB
File ID: 1aUidUtnCKAZHtiBA0Ks2TkF7bpbeBQjC
file buy_000011.json.gzip.md5 does not exists!
file size smaller than 5MB
File ID: 1wjhOPm-45jQnUWyh3RB3L3SJt7wIIM-z
file buy_000054.json.gzip.md5 does not exists!
file size smaller than 5MB
File ID: 1GscQeQfC6O2VU0Q0XcK4VQKIIcsBHUie
file buy_000041.json.gzip does not exists!
file size larger than 5MB
File ID: 1JcE86YYmKqBDldYDvMiBR8T1cUVrbKnS
file buy_000023.json.gzip.md5 does not exists!
file size smaller than 5MB
File ID: 14XaUwXjYIUJEDyQtEDw_qjFc7MmW3l7a
file buy_000024.json.gzip.md5 does not exists!
file size smaller than 5MB
File ID: 1-16nTAjELmBTOQXHnMHLzLUSttUy61uL
file buy_000062.json.gzip.md5 does not exists!
file size smaller than 5MB
File ID: 1V3D8Gb3qCjhczONwH6c041c4D80laBop
file buy_000017.json.gzip.md5 does not exists!
file size smaller than 5MB
File ID: 1M_vfCQR7pPdRjsVM8jrJ5tScXmH62Fvy
file buy_000044.json.gzip.md5 does not exists!
file size smaller than 5MB
File ID: 1qh82rVvzDOjGFUwr00FilY-2QHVyd3Q9
file buy_000059.json.gzip does not exists!
file size larger than 5MB
File ID: 1124lSu78o5b13zpkDFN7xXT_i3giW_HI
file buy_000050.json.gzip does not exists!
file size larger than 5MB
File ID: 1mJSfjZOiOizJw1uzk9h7cbYaZptGMVeo
file buy_000019.json.gzip.md5 does not exists!
file size smaller than 5MB
File ID: 1L3_sWtM5ZhQeN4BYeskWh1YugsysvG8_
file buy_000033.json.gzip.md5 does not exists!
file size smaller than 5MB
File ID: 1NcHKmmyle06z6VtPqA-pOrwU5Q3r6i34
file buy_000041.json.gzip.md5 does not exists!
file size smaller than 5MB
File ID: 1Dl7urLZ_xbRKewc-trrt9y4JUZnTJiYC
file buy_000011.json.gzip does not exists!
file size larger than 5MB
File ID: 1SxhUjmrrP3E69SFxuyj6kVt3XTR595z5
file buy_000050.json.gzip.md5 does not exists!
file size smaller than 5MB
File ID: 1xkdB0qoj6-bKj3kFaAeTg-PpLn8_vHUO
file buy_000033.json.gzip does not exists!
file size larger than 5MB
File ID: 1AwGReLLwWLPK95iVP_0GwG5GGP5vB543
file buy_000063.json.gzip.md5 does not exists!
file size smaller than 5MB
File ID: 1mW86PPyr9qBhNtuiOc_en5iTu_6d1thh
file buy_000056.json.gzip does not exists!
file size larger than 5MB
File ID: 1GHFFip057PgWD28HxTOM1aIOPft-EH_o
file buy_000006.json.gzip does not exists!
file size larger than 5MB
File ID: 1wa_NypLW6bY3ZTzsAigvAT1u42d-oShr
file buy_000018.json.gzip.md5 does not exists!
file size smaller than 5MB
File ID: 1Yn75ZEiyrugTzzTEJxH76nZfY19jgciJ
file buy_000061.json.gzip.md5 does not exists!
file size smaller than 5MB
File ID: 1JlWpKghbSSYc2zjBDP5aA8CspLKjRg9G
file buy_000032.json.gzip does not exists!
file size larger than 5MB
File ID: 1nFabmX1JGKyOFwhEwC0VSipOqPNlXZpw
file buy_000000.json.gzip does not exists!
file size larger than 5MB
File ID: 1yyyzoA-a0-1GiCnDTzNm_mTHeRoQU5iN
file buy_000035.json.gzip.md5 does not exists!
file size smaller than 5MB
File ID: 1de55I10S_089QK-7OtCvnjk73DtOLPGI
file buy_000039.json.gzip.md5 does not exists!
file size smaller than 5MB
File ID: 18xMhOFMOSqThhh5i5QvOGP0_3skHA-4o
file buy_000058.json.gzip does not exists!
file size larger than 5MB
File ID: 1qAMkpq-JUDR59fef99L6AiMF67PQJk4-
file buy_000064.json.gzip does not exists!
file size larger than 5MB
File ID: 1k47TIBXb3ZXrKeimOOUcriNDeGKWUPc6
file buy_000045.json.gzip does not exists!
file size larger than 5MB
File ID: 1Zi6S-Z9dO2U4D-hCp8oTOlKsIEfK5Htb
file buy_000001.json.gzip does not exists!
file size larger than 5MB
Traceback (most recent call last):
  File "upload_v2.py", line 199, in <module>
    localpath, f, ff, fff, ffff), targetdirid=lv4dirid)
  File "upload_v2.py", line 162, in executefileupload
    folderid=targetdirid)
  File "upload_v2.py", line 89, in uploadfile
    fields='id').execute()
  File "/root/anaconda3/envs/my_env/lib/python3.6/site-packages/googleapiclient/_helpers.py", line 130, in positional_wrapper
    return wrapped(*args, **kwargs)
  File "/root/anaconda3/envs/my_env/lib/python3.6/site-packages/googleapiclient/http.py", line 811, in execute
    _, body = self.next_chunk(http=http, num_retries=num_retries)
  File "/root/anaconda3/envs/my_env/lib/python3.6/site-packages/googleapiclient/_helpers.py", line 130, in positional_wrapper
    return wrapped(*args, **kwargs)
  File "/root/anaconda3/envs/my_env/lib/python3.6/site-packages/googleapiclient/http.py", line 972, in next_chunk
    headers=headers)
  File "/root/anaconda3/envs/my_env/lib/python3.6/site-packages/oauth2client/transport.py", line 175, in new_request
    redirections, connection_type)
  File "/root/anaconda3/envs/my_env/lib/python3.6/site-packages/oauth2client/transport.py", line 282, in request
    connection_type=connection_type)
  File "/root/anaconda3/envs/my_env/lib/python3.6/site-packages/httplib2/__init__.py", line 1514, in request
    (response, content) = self._request(conn, authority, uri, request_uri, method, body, headers, redirections, cachekey)
  File "/root/anaconda3/envs/my_env/lib/python3.6/site-packages/httplib2/__init__.py", line 1264, in _request
    (response, content) = self._conn_request(conn, request_uri, method, body, headers)
  File "/root/anaconda3/envs/my_env/lib/python3.6/site-packages/httplib2/__init__.py", line 1188, in _conn_request
    conn.request(method, request_uri, body, headers)
  File "/root/anaconda3/envs/my_env/lib/python3.6/http/client.py", line 1239, in request
    self._send_request(method, url, body, headers, encode_chunked)
  File "/root/anaconda3/envs/my_env/lib/python3.6/http/client.py", line 1285, in _send_request
    self.endheaders(body, encode_chunked=encode_chunked)
  File "/root/anaconda3/envs/my_env/lib/python3.6/http/client.py", line 1234, in endheaders
    self._send_output(message_body, encode_chunked=encode_chunked)
  File "/root/anaconda3/envs/my_env/lib/python3.6/http/client.py", line 1065, in _send_output
    self.send(chunk)
  File "/root/anaconda3/envs/my_env/lib/python3.6/http/client.py", line 986, in send
    self.sock.sendall(data)
  File "/root/anaconda3/envs/my_env/lib/python3.6/ssl.py", line 972, in sendall
    v = self.send(byte_view[count:])
  File "/root/anaconda3/envs/my_env/lib/python3.6/ssl.py", line 941, in send
    return self._sslobj.write(data)
  File "/root/anaconda3/envs/my_env/lib/python3.6/ssl.py", line 642, in write
    return self._sslobj.write(data)
KeyboardInterrupt
Traceback (most recent call last):
  File "upload_v2.py", line 37, in <module>
    filename, ext = os.path.splitext(os.path.basename(__file__))
NameError: name 'os' is not defined
Traceback (most recent call last):
  File "upload_v2.py", line 218, in <module>
    localpath, f, ff, fff, ffff), targetdirid=lv4dirid)
  File "upload_v2.py", line 181, in executefileupload
    folderid=targetdirid)
  File "upload_v2.py", line 107, in uploadfile
    fields='id').execute()
  File "/root/anaconda3/envs/my_env/lib/python3.6/site-packages/googleapiclient/_helpers.py", line 130, in positional_wrapper
    return wrapped(*args, **kwargs)
  File "/root/anaconda3/envs/my_env/lib/python3.6/site-packages/googleapiclient/http.py", line 811, in execute
    _, body = self.next_chunk(http=http, num_retries=num_retries)
  File "/root/anaconda3/envs/my_env/lib/python3.6/site-packages/googleapiclient/_helpers.py", line 130, in positional_wrapper
    return wrapped(*args, **kwargs)
  File "/root/anaconda3/envs/my_env/lib/python3.6/site-packages/googleapiclient/http.py", line 979, in next_chunk
    return self._process_response(resp, content)
  File "/root/anaconda3/envs/my_env/lib/python3.6/site-packages/googleapiclient/http.py", line 1010, in _process_response
    raise HttpError(resp, content, uri=self.uri)
googleapiclient.errors.HttpError: <HttpError 500 when requesting https://www.googleapis.com/upload/drive/v3/files?supportsTeamDrives=true&fields=id&alt=json&uploadType=resumable returned "">
Traceback (most recent call last):
  File "upload_v2.py", line 218, in <module>
    localpath, f, ff, fff, ffff), targetdirid=lv4dirid)
  File "upload_v2.py", line 180, in executefileupload
    folderid=targetdirid)
  File "upload_v2.py", line 106, in uploadfile
    fields='id').execute()
  File "/root/anaconda3/envs/my_env/lib/python3.6/site-packages/googleapiclient/_helpers.py", line 130, in positional_wrapper
    return wrapped(*args, **kwargs)
  File "/root/anaconda3/envs/my_env/lib/python3.6/site-packages/googleapiclient/http.py", line 811, in execute
    _, body = self.next_chunk(http=http, num_retries=num_retries)
  File "/root/anaconda3/envs/my_env/lib/python3.6/site-packages/googleapiclient/_helpers.py", line 130, in positional_wrapper
    return wrapped(*args, **kwargs)
  File "/root/anaconda3/envs/my_env/lib/python3.6/site-packages/googleapiclient/http.py", line 916, in next_chunk
    raise ResumableUploadError(resp, content)
googleapiclient.errors.ResumableUploadError: <HttpError 500 "Internal Error">
Traceback (most recent call last):
  File "upload_v2.py", line 218, in <module>
    localpath, f, ff, fff, ffff), targetdirid=lv4dirid)
  File "upload_v2.py", line 180, in executefileupload
    folderid=targetdirid)
  File "upload_v2.py", line 106, in uploadfile
    fields='id').execute()
  File "/root/anaconda3/envs/my_env/lib/python3.6/site-packages/googleapiclient/_helpers.py", line 130, in positional_wrapper
    return wrapped(*args, **kwargs)
  File "/root/anaconda3/envs/my_env/lib/python3.6/site-packages/googleapiclient/http.py", line 811, in execute
    _, body = self.next_chunk(http=http, num_retries=num_retries)
  File "/root/anaconda3/envs/my_env/lib/python3.6/site-packages/googleapiclient/_helpers.py", line 130, in positional_wrapper
    return wrapped(*args, **kwargs)
  File "/root/anaconda3/envs/my_env/lib/python3.6/site-packages/googleapiclient/http.py", line 979, in next_chunk
    return self._process_response(resp, content)
  File "/root/anaconda3/envs/my_env/lib/python3.6/site-packages/googleapiclient/http.py", line 1010, in _process_response
    raise HttpError(resp, content, uri=self.uri)
googleapiclient.errors.HttpError: <HttpError 500 when requesting https://www.googleapis.com/upload/drive/v3/files?supportsTeamDrives=true&fields=id&alt=json&uploadType=resumable returned "Internal Error">
Traceback (most recent call last):
  File "upload_v2.py", line 17, in <module>
    from apiclient.discovery import build
ModuleNotFoundError: No module named 'apiclient'
Traceback (most recent call last):
  File "upload_v2.py", line 149, in checkfile
    fields="files(id)",
  File "/root/anaconda3/envs/my_env/lib/python3.6/site-packages/googleapiclient/_helpers.py", line 130, in positional_wrapper
    return wrapped(*args, **kwargs)
  File "/root/anaconda3/envs/my_env/lib/python3.6/site-packages/googleapiclient/http.py", line 835, in execute
    method=str(self.method), body=self.body, headers=self.headers)
  File "/root/anaconda3/envs/my_env/lib/python3.6/site-packages/googleapiclient/http.py", line 162, in _retry_request
    resp, content = http.request(uri, method, *args, **kwargs)
  File "/root/anaconda3/envs/my_env/lib/python3.6/site-packages/oauth2client/transport.py", line 175, in new_request
    redirections, connection_type)
  File "/root/anaconda3/envs/my_env/lib/python3.6/site-packages/oauth2client/transport.py", line 282, in request
    connection_type=connection_type)
  File "/root/anaconda3/envs/my_env/lib/python3.6/site-packages/httplib2/__init__.py", line 1514, in request
    (response, content) = self._request(conn, authority, uri, request_uri, method, body, headers, redirections, cachekey)
  File "/root/anaconda3/envs/my_env/lib/python3.6/site-packages/httplib2/__init__.py", line 1264, in _request
    (response, content) = self._conn_request(conn, request_uri, method, body, headers)
  File "/root/anaconda3/envs/my_env/lib/python3.6/site-packages/httplib2/__init__.py", line 1217, in _conn_request
    response = conn.getresponse()
  File "/root/anaconda3/envs/my_env/lib/python3.6/http/client.py", line 1331, in getresponse
    response.begin()
  File "/root/anaconda3/envs/my_env/lib/python3.6/http/client.py", line 297, in begin
    version, status, reason = self._read_status()
  File "/root/anaconda3/envs/my_env/lib/python3.6/http/client.py", line 258, in _read_status
    line = str(self.fp.readline(_MAXLINE + 1), "iso-8859-1")
  File "/root/anaconda3/envs/my_env/lib/python3.6/socket.py", line 586, in readinto
    return self._sock.recv_into(b)
  File "/root/anaconda3/envs/my_env/lib/python3.6/ssl.py", line 1009, in recv_into
    return self.read(nbytes, buffer)
  File "/root/anaconda3/envs/my_env/lib/python3.6/ssl.py", line 871, in read
    return self._sslobj.read(len, buffer)
  File "/root/anaconda3/envs/my_env/lib/python3.6/ssl.py", line 631, in read
    v = self._sslobj.read(len, buffer)
KeyboardInterrupt

During handling of the above exception, another exception occurred:

Traceback (most recent call last):
  File "upload_v2.py", line 249, in <module>
    localpath, f, ff, fff, ffff), targetdirid=lv4dirid)
  File "upload_v2.py", line 208, in executefileupload
    teamDriveId=TEAMDRIVEID, typename='file')
  File "upload_v2.py", line 153, in checkfile
    except HttpError as err:
NameError: name 'HttpError' is not defined
Traceback (most recent call last):
  File "upload_v2.py", line 149, in checkfile
    fields="files(id)",
  File "/root/anaconda3/envs/my_env/lib/python3.6/site-packages/googleapiclient/_helpers.py", line 130, in positional_wrapper
    return wrapped(*args, **kwargs)
  File "/root/anaconda3/envs/my_env/lib/python3.6/site-packages/googleapiclient/http.py", line 840, in execute
    raise HttpError(resp, content, uri=self.uri)
googleapiclient.errors.HttpError: <HttpError 500 when requesting https://www.googleapis.com/drive/v3/files?pageSize=10&corpora=teamDrive&includeTeamDriveItems=true&supportsTeamDrives=true&teamDriveId=0ABN1nlDroMTQUk9PVA&q=%2717a7-YeBL849Xn0sgsWsJA5HLJe6kPyZ8%27+in+parents+and+name+%3D+%27bid_000417.json.gzip%27&fields=files%28id%29&alt=json returned "Internal Error">

During handling of the above exception, another exception occurred:

Traceback (most recent call last):
  File "upload_v2.py", line 249, in <module>
    localpath, f, ff, fff, ffff), targetdirid=lv4dirid)
  File "upload_v2.py", line 208, in executefileupload
    teamDriveId=TEAMDRIVEID, typename='file')
  File "upload_v2.py", line 153, in checkfile
    except HttpError as err:
NameError: name 'HttpError' is not defined
Traceback (most recent call last):
  File "upload_v2.py", line 20, in <module>
    from googleapiclient.error import HttpError
ModuleNotFoundError: No module named 'googleapiclient.error'
