{
  "type": "service_account",
  "project_id": "lance-bt0042",
  "private_key_id": "e4f245d6b4bc7b8590236b720c32c56fc7b5c632",
  "private_key": "-----BEGIN PRIVATE KEY-----\nMIIEvQIBADANBgkqhkiG9w0BAQEFAASCBKcwggSjAgEAAoIBAQCRGdYxY7yI+Gp3\nW8i47Ci4IYvz3aD8l2QFVXrXTv1S9RKqpNOvKDDC+uu03DHsa+ljroBGMXEmSE1V\nvyQqd9CUk6izYoo6FOFXtS5edRT2hpgXXQNlRU/MimvdazuW+z5j8qyNvXR7hQ+m\nIXbpvNZ9YpCVu/sERlM9d7ale0ABR89nrWNS5CZcrqtIOD+1quWZ6ziEbRHM+X4F\no4QfwOTHr2C9Nx1OStqHH69IgTC4Lk3cwzbouhqxqsgxFYCaz1pN91+sq1N/J2jM\nC95koBoS2XPxiAoETC0d/pB4kBStW6wSc3zTRAwzNv/mI44OrC+r0IlN46dF8sXg\nOSSkN/JTAgMBAAECggEAJCqLb84LPRyl9NAkzKrYT2TVLFiOescFQCsZLjda/uVk\n3LGurZbX6JGAVJkZvHL9PkJNaLGEIWWeGQRGcGtiytWvE9840tdHf4QCZbrLGdNc\nb15YrVJEXJgX4J2Mwcont+PRzJZvRSZaSy9GI2ZVE/WQUjIDlAIvVz/Sf5aj0m2C\ngLckpARoHTnL6Saqy+kZHXAn0x/nXnsbkIsaRNadFZX/XR6po0N4ZR6HkbGB6hfE\nKbGUvPzbmyApB/FN4B/mgIvQInU+ZXv3AAqOrYf+PyIywnLaW4vWSBHlgqit9DXB\nQoatoeresgAtitANbkn1/4Dn6JjWTXPEBM1IiTvLiQKBgQDJn0J5l5fqcrVc1kXQ\nlKTkOhprXwcDaOFefrt+sF1INHnAlfMX3hCQ+gYiUtFzzdQVvBseKc+zY6yTo3E4\ng8hmIDhf+ytk0rzsLoGxUE5SYaRMr6v3mOrQPyjSbnEVVGhawAHBj540ch+kdv/J\ng+Wlbn5IBuBNcVwVV1jEuXQaBwKBgQC4PCTuuntrg+OBNQV56vkLWU68g4s43xRg\negd+SCYJvf4NzsAlcQZ3PbkUWHMMBIOGuv9Jxi2UXI5KPdXWwosq5dqyLREGV6Af\nvmkc45HFkxROiVhaWNpmOl8c5IVzVjJfuFf+7RGLw22nVUmYh7ag6NHxY9Zv2Ek/\nW/TGLv7CVQKBgQCRkzr0/h6C+dW3NULtShYQb19Z/R/cN2LZzplj7MU9eB4cjmgZ\n6I1/j/bT24Y9nfSuyMWvrrK3rJUTeGQsUQJlsofhzUFUp9Aem6mqs/gJBVUSxZhd\nynxoZeH8ph9iLjK2q4HZFvA8n9X28rDW+DPckX3+VXComdvJ0OpYCCsrCwKBgCMQ\nR1MsKLswscbwiWdHwjhXufWE76VWR7GI6A4vuxWVlFmaZNV7amidVbE6mELMRSAK\nTPYEgr4+01Hr7Nvf0M7MSlAo5ZmYacBA5A58fUzmDjJYT3l6ea6FI38DOybVW+b9\n1bmN8w3vltoHEGe4RJjhVrujbbeBqYcmgDKL1S61AoGAXqCi9NtVoHliVhFmJh9s\nvKM1aXbachuj9OSCAF5/v2yiImMG8LynpVyQx6+D7/fOe8iYBVM0dAxwoazrW3sO\nkeRZ8U0uPmZkmWbdC/WLuzwm4JAz+sAI5HBb3auwOSE06Oq1G8ECz72dDrfCYO+j\ncHjk+/1QyKgHD/nVXvprmS0=\n-----END PRIVATE KEY-----\n",
  "client_email": "lance-149@lance-bt0042.iam.gserviceaccount.com",
  "client_id": "104037177569898972574",
  "auth_uri": "https://accounts.google.com/o/oauth2/auth",
  "token_uri": "https://accounts.google.com/o/oauth2/token",
  "auth_provider_x509_cert_url": "https://www.googleapis.com/oauth2/v1/certs",
  "client_x509_cert_url": "https://www.googleapis.com/robot/v1/metadata/x509/lance-149%40lance-bt0042.iam.gserviceaccount.com"
}
