{
  "type": "service_account",
  "project_id": "composite-bruin-204801",
  "private_key_id": "391e649ec310bf0977b762ef4ec6512fa6ca037a",
  "private_key": "-----BEGIN PRIVATE KEY-----\nMIIEvAIBADANBgkqhkiG9w0BAQEFAASCBKYwggSiAgEAAoIBAQCujZ2F16LZt2WI\nk3wRBpN5vrmiyCtTfwKfC0zvCdQipCV5VM4eCCQSMlTgbiV+R8HizkC3lTO+jH0K\nqtKDiq0kFpDQa1LbrfSDRSKdaUhBEOvangko0Qslb6f4YBGvvrprWXwUnz+3ii71\ngTPrg/57cONH0Fw0Q2EHWKnOjEVY2fvNzqGvNGE1Ea7OL64cK5CuuY7sdpUIMjlv\nBeVFlhohLX5331uPtG13jtxvulfOLwrqDjxrV2IlJ/Q9eSGSUKjjUEnmiYBrjJYs\nRyklZSls40gJret62VP8ZU+apqNwcnfslc+ebXGu8WQ3MKjV8LT8SIJEt2CN+RbU\nlmhUrxB3AgMBAAECggEAEPQr45vhJl8iW0fJgIHWzlFdbteDiPv7tJgaMQsPi3Nn\nOS5CfGpAAdoMbzJjk+Apj2G6Qw2yO+shtGjvddu0G2trRcMKBjcSjUyoVjx4MLgR\nbTRCVLBd8i6yutrh40ovVk1+HsA+jESKPeNk62NW0uu3asc5dwRzjSbqDBsigfgC\nS6tUUg5segfDvwjyE0YMK2rmCVVpFhrzq5tmQPb2EYNedOAKkkZ1QdExku4f5y8k\nXgBqcbCq5mSN5ph/2GMxHt44g1tSiFAUHeSbBf4xXvqfUrDIBhHO+8DtPkY2o6Aw\nudztlRo7mWOsP8Ii9zdMF/BNyt/+t7tshViIshEamQKBgQDzCGjo3TDisChqys5I\naQQ1cwdS9L5mV3QR79Fn3V0wJZoSNOwNjxY9Rqf9VzPhEEfwRyQxJ+UAAwBwaa7O\ny9mebIj4k22tQ6VRNaBdaemSF0OeWqMnZgXoi25N4xu5Q+oc1/u33/7h1TEoyhn8\n2JWOhzdpLatxxRt+aFAAxX4xywKBgQC33dcq7QKD/p+g5j5GZNA0F0nmaGYU7CaC\n7ci4hzaYnKEKryncneQYzjr5eTQ3xeVquDbNF1Lku6l+cK/BCja6lvqguQjIRYj/\noTmNdbJkkrr1VASNQUG75MtvbhhlJCRgkGGFZkRB0/DMEiQ2SpActxZ7W66i/Fqz\nnoMt749WhQKBgCVo3f06TxQV2aLWpPowcB1qH259jfFi9NLt/2XlhTqsDxNOYieU\nJvA3uBQfIDU8tFYgHUoTwgRGcgLbwbTDXDQusMbSqsdI6mGdx5mZfAKo4he2C/c8\nlRw+mjQTCWlzMs5N0Ml1CV7p2i9VLLrm+958oeLmzMUuehTzKZ10yQARAoGAIwhi\nwewMyaePNLIJ9ZGp1fMGAp+rq5rfL50s3HPu5B8b1BRR7pYq6ssIk5YTa/kJ4E6f\nKm6iPbC/97Zy1l4i1WSE9nCrCrWtB7/pXlmplt4aPzo179AaPTm3xVB912+OetOn\nsSouITjHrapbOfj1AnOkFfb/DFD22zh9mBgIAJ0CgYAN8gj77CCGT2vf+RykdGqY\nWcaRJBLX8PR9U5Lcoi/5jdwL7PzwUjUGT1Pc41rTNOj0phmJKcKGUE+SUjaDrgUs\nHpfI4rP32z6x7PiFsKfWEVq09FSg3UrrjNXqQb1AlwyN47It0nLZG/1BTMzNexRH\nmnpVO46zVAh5KnjIkZTBMQ==\n-----END PRIVATE KEY-----\n",
  "client_email": "drive-v3-api@composite-bruin-204801.iam.gserviceaccount.com",
  "client_id": "101176909823369150541",
  "auth_uri": "https://accounts.google.com/o/oauth2/auth",
  "token_uri": "https://accounts.google.com/o/oauth2/token",
  "auth_provider_x509_cert_url": "https://www.googleapis.com/oauth2/v1/certs",
  "client_x509_cert_url": "https://www.googleapis.com/robot/v1/metadata/x509/drive-v3-api%40composite-bruin-204801.iam.gserviceaccount.com"
}
