{
  "type": "service_account",
  "project_id": "lance-bt0042",
  "private_key_id": "795dbc53aa3f1724380c6485e339af61b940fd69",
  "private_key": "-----BEGIN PRIVATE KEY-----\nMIIEvAIBADANBgkqhkiG9w0BAQEFAASCBKYwggSiAgEAAoIBAQDaQZkXKnxuwECz\n/abinVDHTPik7piwOr52PFqA1CVkxqUewg2B90AZuenHyW3R8uH/VqwTvRf7T2Td\nIUMhj9vNcv4rZVXA5IoL5AnPgnYGLS02iP0qdNdMklfOXuZHrFEnUkR6IoU11Cvq\nrh85MlfTHBCaPuGdnLgEbXpqWIZsQkuz1Rtz3BNY4WUkkne1ib5/pkAkgx4fs8Lj\nbI+gKFeVecq0deJXYds4ckDXIuPiwwL7ZF7nrAMl+rloN02dMZEFN30pGNZn4YOJ\noNH/W3+1SZ8WfiopiHYB6cEig73/U8KAOgXGmSK/QUBiZiVGY7/vxk1Goj4hmy2C\nZtf3mvapAgMBAAECgf8/8Pfo0Ymi6LAMC0PZID2KJgKyTzRsbMlf2k6pb32FCK1X\nVYKfkNA2uUDERz7lQ0Lyi3HeVoewGJJ0Nkp0irDaf9X24Lk+ybWnxicZpB7vsEyO\nrZN93L02sakHzMWqOdGMs41cOsDMBFzZZCnBl/4i2xYCGmn+wusmYOx8O3MmQ7tM\nzhxWo0mNJzxURLPAsqsSZBvOWX3v8PeUSvWtQbSe5SGD+dNIfSNWKAN7gWtQ+qw2\nky6J68pVKMrA8noOx2pZkmFjf0xRHZgYKSZX6JLiXpSimgVYajNYQ5R5P8Z45Udg\nkuK8aj9BBV8N1/sv5II6cMn2vF8qm9c6XBJaAp0CgYEA9hbQjxuOQ/6WMHw3huAj\n0HdZZ0KFECQu78JvtRM+f9C+5QU+YwmHScXXK6IJQ1Fq4bCm2aQz/mJNv0yiSnOq\nnGUKqv+Xw8HZmnCHysLCdXSkkEeAMaD/FrpkpERvDLjfEzro4FetvRPyKn132LCT\n15Bfz1svQoFt/EavWAgjDx8CgYEA4wvTXBF7dfXNo6aig4jwcIZkH+PXfaS08BJy\nexS1VnsAAwDFsZ6zlXUDs3QucWOcbyRZL4rMOoL+eLKotKOIwPxg8QRgAjdkX9kU\nyBNwXOFD5dUyWEmb/Rz5bEUQbfWou/4j4Bv5G7SiSNaLMSxt9Z0DckylCZzUa9E4\nLwBBaTcCgYEAxG/tx259n7UnekiNonJk5FGA4jZtNTdM6EJTHT3hU/Hzj6kh5biD\nb9YnLkNIFZ52LPXwGidDAbrCyQOJQNkXxYO6gklIghDJfMh6/NV+mHelrS4GHJeh\nSCk9kQq3gnZIS3do0TvsCdRUKKrC8gvx1879S+5DyVi7zPc3nJPSOI0CgYBZ9N+D\nRPHzpLYbNvSAxQruqnCVKgLBJzcBP23YUjYe05EHn5C0dTqV5szWlxunlV3vsyka\n6xVLwYbtb2vkVj7ip5wJIkCf4C6Gw022j+0e/6mVMElILbH+MTKpsRt3VbPK+EBi\nlPK4BXOfBFIV45KVk+Y/rRpemqKXLUfjZ2iDNQKBgQDDIy3vW1H37TfbEm4xx3qk\nYzUymW2jnyZDpc3gdD5Cx05s5BNVvnsu05O5K9cQbCX+P8+nRu9sQFkaqdP3NFAZ\njSfYGe+4yLT4XyZQarlJ2dCQLk4MvA6yVVhW8SQ+lTM3V7vvTStcRbmgTB6OoM8K\nQd+g8IGYjjqUXZYFbdf3jA==\n-----END PRIVATE KEY-----\n",
  "client_email": "lance-bt0042-ga@lance-bt0042.iam.gserviceaccount.com",
  "client_id": "115776804972120506173",
  "auth_uri": "https://accounts.google.com/o/oauth2/auth",
  "token_uri": "https://accounts.google.com/o/oauth2/token",
  "auth_provider_x509_cert_url": "https://www.googleapis.com/oauth2/v1/certs",
  "client_x509_cert_url": "https://www.googleapis.com/robot/v1/metadata/x509/lance-bt0042-ga%40lance-bt0042.iam.gserviceaccount.com"
}
